[gd_scene load_steps=2 format=3 uid="uid://doidejkmnj7f2"]

[ext_resource type="Script" path="res://Assets/PJ/CamaraPJ.gd" id="1_y3t34"]

[node name="CamaraPJ" type="Node2D"]
script = ExtResource("1_y3t34")

[node name="Camera2D" type="Camera2D" parent="."]
position = Vector2(0, -280)
