[gd_scene load_steps=4 format=3 uid="uid://bu8nxf0lf1lgr"]

[ext_resource type="Script" path="res://Assets/Bosses/Hüdra/movimiento_cuerpo_roto.gd" id="1_1ydp7"]
[ext_resource type="Texture2D" uid="uid://k2vtqpqrfsir" path="res://Assets/Bosses/Ahju/Cuerpo roto.png" id="1_epmyf"]
[ext_resource type="Texture2D" uid="uid://ba23n8hshldy8" path="res://Assets/Bosses/Ahju/Cañon inferior.png" id="2_farru"]

[node name="Ahju roto" type="CharacterBody2D" node_paths=PackedStringArray("jefe_roto")]
script = ExtResource("1_1ydp7")
jefe_roto = NodePath(".")

[node name="CañonInferior" type="Sprite2D" parent="."]
position = Vector2(1.5, 123.5)
texture = ExtResource("2_farru")

[node name="CuerpoRoto" type="Sprite2D" parent="."]
position = Vector2(-4.5, -227.5)
texture = ExtResource("1_epmyf")
