[gd_scene load_steps=5 format=3 uid="uid://os4hh4htwmul"]

[ext_resource type="Script" path="res://Rotador.gd" id="1_04qrm"]
[ext_resource type="Script" path="res://Assets/Bosses/Hüdra/proyectil_jefe_1_chico.gd" id="1_47mca"]
[ext_resource type="Texture2D" uid="uid://bkq4t617mv8mf" path="res://Assets/Bosses/Ahju/Bola de fuego.png" id="1_d3qkv"]

[sub_resource type="CircleShape2D" id="CircleShape2D_nis7x"]
radius = 21.0238

[node name="Bola de fuego" type="Area2D"]
collision_mask = 2
script = ExtResource("1_47mca")
velocidad_proyectil = 100
"daño" = 3

[node name="Marker2D" type="Marker2D" parent="."]
script = ExtResource("1_04qrm")
velocidad_rotacion = 3.0

[node name="BolaDeFuego" type="Sprite2D" parent="Marker2D"]
texture = ExtResource("1_d3qkv")

[node name="CollisionShape2D" type="CollisionShape2D" parent="."]
shape = SubResource("CircleShape2D_nis7x")

[connection signal="body_entered" from="." to="." method="_on_body_entered"]
