[gd_scene load_steps=2 format=3 uid="uid://cow8nw08kts5w"]

[ext_resource type="Texture2D" uid="uid://deuhyren5vngt" path="res://Assets/Bosses/Nautilus/Aviso agua.png" id="1_iisc0"]

[node name="Aviso agua" type="Node2D"]
top_level = true
position = Vector2(-4, 48)

[node name="AvisoAgua" type="Sprite2D" parent="."]
position = Vector2(1, 56)
texture = ExtResource("1_iisc0")
