[gd_scene load_steps=6 format=3 uid="uid://csibp3rrwnic8"]

[ext_resource type="Texture2D" uid="uid://6kp2y037pifv" path="res://Assets/Bosses/Nautilus/Burbuja.png" id="1_4jaqw"]
[ext_resource type="Script" path="res://Assets/Bosses/Nautilus/burbuja.gd" id="1_awlrj"]
[ext_resource type="Script" path="res://Assets/Bosses/Nautilus/burbujear.gd" id="2_ignuy"]

[sub_resource type="CircleShape2D" id="CircleShape2D_hyduy"]
radius = 42.0476

[sub_resource type="CircleShape2D" id="CircleShape2D_tp7wb"]
radius = 30.0666

[node name="Burbuja" type="CharacterBody2D"]
top_level = true
collision_mask = 2
script = ExtResource("1_awlrj")
vida = 1
velocidad_proyectil = 400

[node name="Area2D" type="Area2D" parent="."]
collision_mask = 2
script = ExtResource("2_ignuy")
"daño" = 1

[node name="CollisionShape2D" type="CollisionShape2D" parent="Area2D"]
shape = SubResource("CircleShape2D_hyduy")
debug_color = Color(0, 0.6, 0.701961, 0.419608)

[node name="Burbuja" type="Sprite2D" parent="."]
rotation = -1.5708
texture = ExtResource("1_4jaqw")

[node name="CollisionShape2D" type="CollisionShape2D" parent="."]
shape = SubResource("CircleShape2D_tp7wb")

[connection signal="body_entered" from="Area2D" to="Area2D" method="_on_body_entered"]
