[gd_scene load_steps=4 format=3 uid="uid://b0t8671ahg6vn"]

[ext_resource type="Script" path="res://Assets/Bosses/Nautilus/proyectil_nautilus.gd" id="1_gkms6"]
[ext_resource type="Texture2D" uid="uid://ciqco7hrmqr7c" path="res://Assets/Bosses/Nautilus/Proyectil mediano.png" id="1_jse38"]

[sub_resource type="CircleShape2D" id="CircleShape2D_i1iq8"]
radius = 16.0

[node name="Proyectil mediano" type="Area2D"]
top_level = true
collision_mask = 2
script = ExtResource("1_gkms6")
velocidad_proyectil = 10
"daño" = 5
aumento_velocidad = 500

[node name="ProyectilMediano" type="Sprite2D" parent="."]
position = Vector2(-11, 0)
rotation = -1.5708
texture = ExtResource("1_jse38")

[node name="CollisionShape2D" type="CollisionShape2D" parent="."]
shape = SubResource("CircleShape2D_i1iq8")

[node name="Aumento velocidad" type="Timer" parent="."]
unique_name_in_owner = true
wait_time = 0.1
autostart = true

[node name="Quietud" type="Timer" parent="."]
unique_name_in_owner = true
wait_time = 2.0
autostart = true

[connection signal="body_entered" from="." to="." method="_on_body_entered"]
[connection signal="timeout" from="Aumento velocidad" to="." method="_on_aumento_velocidad_timeout"]
[connection signal="timeout" from="Quietud" to="." method="_on_quietud_timeout"]
