[gd_scene load_steps=7 format=3 uid="uid://c7uygyncbqbv4"]

[ext_resource type="Script" path="res://Assets/Bosses/Valgus/Pivot.gd" id="1_6f2ua"]
[ext_resource type="Script" path="res://Assets/Bosses/Valgus/generador_de_escudo.gd" id="1_k0h3n"]
[ext_resource type="Texture2D" uid="uid://ia3i52r081s" path="res://Assets/Bosses/Valgus/Generador de escudo.png" id="1_ooqw3"]

[sub_resource type="CircleShape2D" id="CircleShape2D_ig03r"]
radius = 31.0

[sub_resource type="StyleBoxFlat" id="StyleBoxFlat_igulf"]
bg_color = Color(0.137255, 0.137255, 0.137255, 0.666667)
skew = Vector2(1, 0)
corner_radius_top_left = 8
corner_radius_top_right = 8
corner_radius_bottom_right = 8
corner_radius_bottom_left = 8

[sub_resource type="StyleBoxFlat" id="StyleBoxFlat_7nrbc"]
bg_color = Color(0.831373, 0, 0.137255, 1)
skew = Vector2(1, 0)
corner_radius_top_left = 8
corner_radius_top_right = 8
corner_radius_bottom_right = 8
corner_radius_bottom_left = 8

[node name="Generador de escudo" type="CharacterBody2D"]
script = ExtResource("1_k0h3n")
vida = 60

[node name="Node2D" type="Node2D" parent="."]
script = ExtResource("1_6f2ua")

[node name="GeneradorDeEscudo" type="Sprite2D" parent="Node2D"]
texture = ExtResource("1_ooqw3")

[node name="CollisionShape2D" type="CollisionShape2D" parent="."]
shape = SubResource("CircleShape2D_ig03r")

[node name="ProgressBar" type="ProgressBar" parent="."]
unique_name_in_owner = true
offset_left = -62.0
offset_top = -58.0
offset_right = 87.0
offset_bottom = -31.0
scale = Vector2(0.854933, 0.381826)
theme_override_styles/background = SubResource("StyleBoxFlat_igulf")
theme_override_styles/fill = SubResource("StyleBoxFlat_7nrbc")
value = 34.0
show_percentage = false
