[gd_scene load_steps=9 format=3 uid="uid://fsj37tmnfeiu"]

[ext_resource type="Script" path="res://Assets/Bosses/Valgus/mascara.gd" id="1_3niss"]
[ext_resource type="Texture2D" uid="uid://clwrcr3dju0yv" path="res://Assets/Bosses/Valgus/Mascara 3.png" id="1_n5q0l"]
[ext_resource type="Texture2D" uid="uid://kry2yhm4j8wc" path="res://Assets/Bosses/Valgus/Mascara 2.png" id="2_bk371"]
[ext_resource type="Texture2D" uid="uid://bwiid0ygr5ug6" path="res://Assets/Bosses/Valgus/Mascara 1.png" id="3_a0pfc"]
[ext_resource type="PackedScene" uid="uid://cps4uksao2fbm" path="res://audio_manager.tscn" id="4_2aniq"]

[sub_resource type="CircleShape2D" id="CircleShape2D_kfr6w"]
radius = 112.112

[sub_resource type="StyleBoxFlat" id="StyleBoxFlat_3hn5w"]
bg_color = Color(0.137255, 0.137255, 0.137255, 0.666667)
skew = Vector2(1, 0)
corner_radius_top_left = 8
corner_radius_top_right = 8
corner_radius_bottom_right = 8
corner_radius_bottom_left = 8

[sub_resource type="StyleBoxFlat" id="StyleBoxFlat_7tw8r"]
bg_color = Color(0.831373, 0, 0.137255, 1)
skew = Vector2(1, 0)
corner_radius_top_left = 8
corner_radius_top_right = 8
corner_radius_bottom_right = 8
corner_radius_bottom_left = 8

[node name="Mascara" type="CharacterBody2D"]
script = ExtResource("1_3niss")

[node name="Mascara3" type="Sprite2D" parent="."]
texture = ExtResource("1_n5q0l")

[node name="Mascara2" type="Sprite2D" parent="."]
texture = ExtResource("2_bk371")

[node name="Mascara1" type="Sprite2D" parent="."]
texture = ExtResource("3_a0pfc")

[node name="CollisionShape2D" type="CollisionShape2D" parent="."]
shape = SubResource("CircleShape2D_kfr6w")

[node name="ProgressBar" type="ProgressBar" parent="."]
unique_name_in_owner = true
offset_left = -172.0
offset_top = -162.0
offset_right = 171.0
offset_bottom = -135.0
theme_override_styles/background = SubResource("StyleBoxFlat_3hn5w")
theme_override_styles/fill = SubResource("StyleBoxFlat_7tw8r")
value = 34.0
show_percentage = false

[node name="AudioManager" parent="." instance=ExtResource("4_2aniq")]
unique_name_in_owner = true
